ggconsort
…
**.lightgreen[1.]** Counting and annotation at the time of data wrangling

--

**.lightgreen[2.]** Diagram layout and aesthetic design

---
## Counting and annotation 

```r
trial_data
```

```
## # A tibble: 1,200 x 5
##       id declined prior_chemo bone_mets treatment
##    <int>    <int>       <int>     <int> <chr>    
##  1 65464        0           0         0 Drug A   
##  2 48228        0           0         0 Drug B   
##  3 92586        0           0         0 Drug A   
##  4 70176        0           0         0 Drug B   
##  5 89052        0           0         0 Drug A   
##  6 97333        0           0         0 Drug B   
##  7 80724        0           0         0 Drug A   
##  8 65186        0           0         0 Drug B   
##  9 48837        0           0         0 Drug A   
## 10 99005        0           0         0 Drug B   
## # … with 1,190 more rows
```
…
